{
  "set-cluster-policy": [
    {
      "cores": "<65",
      "node": "#ANY"
    }
  ],
  "set-policy": {
    "search": [
      {"replica" : "<3", "node":"#ANY"},
      {"node": "#ANY", "shard": "#EACH", "replica":"<10"},
      {"replica": "#ALL", "sysprop.fusion_node_type": "search"}
    ],
    "solr-meta": [
      {"replica" : "<3", "node":"#ANY"},
      {"node": "#ANY", "shard": "#EACH", "replica":"<10"},
      {"replica": "#ALL", "sysprop.fusion_node_type": "solr-meta"}
    ],
    "system": [
      {"node": "#ANY", "shard": "#EACH", "replica":"<3"},
      {"replica": "#ALL", "sysprop.fusion_node_type": "system"}
    ]
  }
}